Tarid Wongvorachan: Examining PISA 2018 Data Set with Statistical Learning Approach
…
Coefficient interpretation is actually the same as interpreting linear regression results. First, we look at the p-value to see if any of these predictors are significant. Then, we interpret the coefficient of each prtedictor to the targeted variable. For example, the coefficient of 19.77 for the classroom cooperation variable means that every one-unit increase in the degree of classroom cooperation, students score will increase by 19.7. Next, we can evaluate performance of the model by comparing the predicted value with the actual value, as well as extracting values that can summarize overall performance.

Show code

PISA_linear_train_pred <- 
  predict(PISA_linear_fit, train_data) %>% 
  bind_cols(train_data %>% select(READING_SCORE)) 

PISA_linear_train_pred

# A tibble: 6,118 x 2
   .pred READING_SCORE
   <dbl>         <dbl>
 1  427.          471.
 2  421.          239.
 3  451.          546.
 4  405.          248.
 5  407.          457.
 6  398.          491.
 7  389.          308.
 8  421.          320.
 9  394.          473.
10  404.          507.
# ... with 6,108 more rows
…
We have MSE = 7389.577, RMSE = 86, and R-Squared = 0.0499 (or 4% of the targeted variable). Let us to the same for the testing round to test out how well our model can predict the targeted variable.

Show code

PISA_linear_test_pred <- 
  predict(PISA_linear_fit, test_data) %>% 
  bind_cols(test_data %>% select(READING_SCORE)) 

PISA_linear_test_pred

# A tibble: 2,040 x 2
   .pred READING_SCORE
   <dbl>         <dbl>
 1  398.          477.
 2  427.          542.
 3  415.          519.
 4  422.          597.
 5  421.          467.
 6  434.          573.
 7  397.          522.
 8  425.          436.
 9  423.          440.
10  399.          543.
# ... with 2,030 more rows
…
