Tarid Wongvorachan: Examining the Big 5 personality Dataset with factor analysis
…
Show code

#diagnose for missing value
dlookr::diagnose(data)

# A tibble: 25 x 6
   variables types   missing_count missing_percent unique_count
   <chr>     <chr>           <int>           <dbl>        <int>
 1 A1        integer            16           0.571            7
 2 A2        integer            27           0.964            7
 3 A3        integer            26           0.929            7
 4 A4        integer            19           0.679            7
 5 A5        integer            16           0.571            7
 6 C1        integer            21           0.75             7
 7 C2        integer            24           0.857            7
 8 C3        integer            20           0.714            7
 9 C4        integer            26           0.929            7
10 C5        integer            16           0.571            7
# ... with 15 more rows, and 1 more variable: unique_rate <dbl>
…
